<svg xmlns="http://www.w3.org/2000/svg" width="42" height="42" fill="none" viewBox="0 0 42 42">
    <g clip-path="url(#clip0)">
        <path fill="#fff" d="M2.14 30.137V29.6L0 27.853v.571l.833.67v4.878l.392.245v-4.814l.914.735zM2.645 30.758c-.881.44-.963 2.104-.163 3.72.8 1.615 2.172 2.562 3.07 2.105.882-.44.964-2.105.163-3.72-.8-1.6-2.171-2.546-3.07-2.105zm2.63 5.27c-.686.343-1.764-.44-2.417-1.746-.654-1.305-.62-2.627.065-2.97.686-.342 1.764.44 2.417 1.746.653 1.306.62 2.627-.066 2.97zM8.9 36.844c0 .816-.115 1.631-.931 1.305-.817-.326-.85-1.436-.85-1.941v-3.15l-.473-.26v2.904c0 .326-.147 1.941.915 2.708 1.192.865 1.747.13 1.747-.718v-3.459l-.408-.212v2.823zM12.508 37.366c.115-.881-.228-1.73-.914-2.105-.686-.359-1.764-.8-1.764-.8v4.96l.474.262-.016-4.438c.98.18 2.04 1.175 1.747 1.974-.294.8-1.225.326-1.225.326l1.094 2.742.703.359-1.095-2.431c-.016 0 .866.032.996-.849zM14.762 38.508c-.702-.538-1.633-1.142-1.225-1.811.409-.669 1.209-.016 1.176.8h.474s-.017-1.339-1.062-1.632c-1.045-.278-1.551 1.305-.784 2.105.752.783 1.682 1.224 1.47 2.105-.212.88-1.551.49-1.47-.67l-.457-.26s-.114 1.73 1.306 2.023c1.421.277 1.274-2.138.572-2.66zM20.592 38.573h-.523s-.114.8-.36 1.55c-.293-.358-.603-.734-.864-1.044.408-.326.8-.636.832-1.126.066-.946-.686-1.272-1.078-1.272-.391 0-1.11.375-.963 1.256.05.261.261.67.555 1.11-.44.342-.865.734-.865 1.354 0 1.403 1.339 1.942 2.057 1.289.147-.13.294-.359.425-.604.457.539.816.898.816.898l.278-.44s-.376-.458-.85-1.012c.328-.898.54-1.959.54-1.959zm-2.205-.065c-.408-.538-.31-1.273.245-1.322.555-.032.719.686.523 1.029-.115.195-.327.375-.556.554-.098-.098-.18-.196-.212-.26zm1.062 2.268c-.425.865-1.503.783-1.6-.245-.05-.489.228-.832.587-1.125.327.44.686.897 1.045 1.305-.016.033-.032.049-.032.065zM22.617 37.382l.702-.098v4.634l.522-.081v-4.634l.784-.114V36.5l-2.008.294v.587zM25.033 36.501l-.049 5.173.523-.115v-4.634s.686-.26 1.11-.228c.425.033.752.734.441 1.42-.31.685-1.24.848-1.24.848l1.273 2.22.555-.131-.914-1.714s.832-.359.914-1.844c.066-1.468-1.486-1.599-2.613-.995zM29.328 35.261l-1.551 5.76.539-.147.408-1.583 1.715-.701.457 1.485.522-.196-1.649-4.765-.44.147zm-.457 3.394l.718-2.806.703 2.284-1.421.522zM32.676 38.312l-1.258-3.834-.506.18 1.65 4.699.293-.082 1.584-6.25-.555.213-1.208 5.074zM34.684 38.361l2.221-1.289-.065-.57-1.698.994v-1.778l1.616-1.044v-.588l-1.616.93v-1.86l1.763-1.077v-.57l-2.22 1.37v5.482zM38 30.84l-.507.277v5.58l1.943-1.322v-.603L38 35.734V30.84zM41.15 30.84c-.554.211-1.142.26-.88-.67.26-.93.734-1.158.995-1.158s.196.554.196.554l.506-.342s.017-.947-.718-.832c-.735.114-1.486 1.55-1.47 2.463.016.914.8.833 1.209.604.408-.212.767.245.555 1.012-.212.767-.604 1.305-.931 1.403-.327.098-.523-.163-.457-.653l-.556.36s.082 1.452.997.978c.914-.473 1.192-1.435 1.388-2.35.163-.93-.278-1.582-.833-1.37zM22.094 31.753V.718h2.58c.196 0 .36-.163.36-.359 0-.196-.164-.359-.36-.359H18.942l-6.238 16.284L6.058 0H.49C.278 0 .114.163.114.375c0 .196.164.376.376.376h2.335v20.755H.115v.865h6.613v-.865H3.707V3.394l7.854 18.112L18.96 2.382h.016V31.77h-2.743v.865h9.063v-.865h-3.2v-.016zM41.82 15.779c-.163-4.814-3.25-6.609-7.773-6.951-4.523-.36-4.931-2.579-5.013-3.28-.081-.702.278-5.189 5.013-5.189 5.095 0 5.7 5.793 5.7 5.793h.326V.245h-.327v.669c0 1.305-1.322.587-1.747.326C37.575.963 36.22 0 34.047 0c-1.96 0-6.286.963-6.384 6.674-.098 5.71 5.943 6.282 6.678 6.363.735.082 5.88.114 5.732 4.634-.147 4.52-5.242 4.553-5.242 4.553-5.715 0-7.022-5.793-7.022-5.793v-1.403h-.31v7.392h.31v-.555c0-1.844 1.633-1.387 2.548-.685.8.636 2.498 1.468 4.8 1.468 2.614 0 6.843-1.828 6.663-6.87z"/>
    </g>
    <defs>
        <clipPath id="clip0">
            <path fill="#fff" d="M0 0H42V42H0z"/>
        </clipPath>
    </defs>
</svg>
